{"data": [
 {"attributes":  {"ECID": "0x51C2A3830202EDD",
      "IMEI": "354874093915064",
      "UDID": "41380b24905ac97db835a86cc666",
      "backupWillBeEncrypted": false,
      "batteryCurrentCapacity": 65,
      "bluetoothAddress": "c4:98:80:b3:e3:4c",
      "bootedState": "Booted",
      "buildVersion": "17A861",
      "color": "1",
      "configurationProfiles": "[]",
      "connectedHost": "111.222.111.2",
      "deviceClass": "iPhone",
      "deviceType": "iPhone12,1",
      "ethernetAddress": "c4:98:80:c0:e4:73",
      "firmwareVersion": "14.4",
      "isLocked": true,
      "isPAC": true,
      "isRestorable": true,
      "language": "en-DZ",
      "locale": "en_DZ",
      "modelName": "iPhone 11",
      "name": "iphone_11_366",
      "pairingAllowed": true,
      "passcodeProtected": true,
      "provisioningProfiles": "[]",
      "serialNumber": "F2LX75V8JCLH",
      "totalDiskCapacity": 64000000000,
      "totalSpaceAvailable": 58000000000,
      "updateTime": "2021-03-17T14:13:47+00:00",
      "videoDiskUsage": "0",
      "wifiAddress": "c4:98:80:bf:95:09"},
    "id": "41380b24905ac97db835a86cc885",
    "links": {"self": "/devices_info/41380b24905ac97db835a86cc885"},
    "type": "device_info"},
    {"attributes":  {"ECID": "0x51C2A3830202EDD",
      "IMEI": "354874093915333",
      "UDID": "41380b24905ac97db835a86bb888",
      "backupWillBeEncrypted": false,
      "batteryCurrentCapacity": 65,
      "bluetoothAddress": "c4:98:80:b3:e3:4c",
      "bootedState": "Booted",
      "buildVersion": "17A861",
      "color": "1",
      "configurationProfiles": "[]",
      "connectedHost": "111.222.111.1",
      "deviceClass": "iPhone",
      "deviceType": "iPhone9,1",
      "ethernetAddress": "c4:98:80:c0:e4:73",
      "firmwareVersion": "13.5",
      "isLocked": true,
      "isPAC": true,
      "isRestorable": true,
      "language": "en-DZ",
      "locale": "en_DZ",
      "modelName": "iPhone SE",
      "name": "iphone_se_366",
      "pairingAllowed": true,
      "passcodeProtected": true,
      "provisioningProfiles": "[]",
      "serialNumber": "F2LX75V8JCLH",
      "totalDiskCapacity": 64000000000,
      "totalSpaceAvailable": 58000000000,
      "updateTime": "2021-03-17T14:13:47+00:00",
      "videoDiskUsage": "0",
      "wifiAddress": "c4:98:80:bf:95:09"},
    "id": "41380b24905ac97db835a86cc885",
    "links": {"self": "/devices_info/41380b24905ac97db835a86cc885"},
    "type": "device_info"},
    {"attributes":  {"ECID": "0x51C2A3830202EDD",
      "IMEI": "354874093915333",
      "UDID": "41380b24905ac97db835a86bb888",
      "backupWillBeEncrypted": false,
      "batteryCurrentCapacity": 65,
      "bluetoothAddress": "c4:98:80:b3:e3:4c",
      "bootedState": "Booted",
      "buildVersion": "17A861",
      "color": "1",
      "configurationProfiles": "[]",
      "connectedHost": "111.222.111.1",
      "deviceClass": "iPhone",
      "deviceType": "iPhone9,1",
      "ethernetAddress": "c4:98:80:c0:e4:73",
      "firmwareVersion": "14.3.1",
      "isLocked": true,
      "isPAC": true,
      "isRestorable": true,
      "language": "en-DZ",
      "locale": "en_DZ",
      "modelName": "iPhone 12",
      "name": "iphone_12_aab",
      "pairingAllowed": true,
      "passcodeProtected": true,
      "provisioningProfiles": "[]",
      "serialNumber": "F2LX75V8JCLH",
      "totalDiskCapacity": 64000000000,
      "totalSpaceAvailable": 58000000000,
      "updateTime": "2021-03-17T14:13:47+00:00",
      "videoDiskUsage": "0",
      "wifiAddress": "c4:98:80:bf:95:09"},
    "id": "41380b24905ac97db835a86cc885",
    "links": {"self": "/devices_info/41380b24905ac97db835a86cc885"},
    "type": "device_info"}
],
  "jsonapi": {"version": "1.0"},
  "links": {
    "self": "http://localhost:8888/devices_info?page%5Bsize%5D=3&page%5Bnumber%5D=2",
    "first": "http://localhost:8888/devices_info?page%5Bsize%5D=3",
    "last": "http://localhost:8888/devices_info?page%5Bsize%5D=3&page%5Bnumber%5D=4",
    "prev": "http://localhost:8888/devices_info?page%5Bsize%5D=3&page%5Bnumber%5D=1",
    "next": "http://localhost:8888/devices_info?page%5Bsize%5D=3&page%5Bnumber%5D=3"
  },
  "meta": {"count": 12}
}
